<svg width="73" height="73" viewBox="0 0 73 73" fill="none" xmlns="http://www.w3.org/2000/svg">
<g filter="url(#filter0_d_36_687)">
<circle cx="36.373" cy="28.9585" r="14" fill="#6053BF"/>
</g>
<path d="M44.132 28.9583C44.1326 29.2107 44.0615 29.4581 43.9269 29.6717C43.7924 29.8854 43.6 30.0564 43.372 30.1649L33.6054 34.7916C33.4266 34.8891 33.2286 34.946 33.0254 34.9583C32.803 34.9578 32.5842 34.9017 32.3891 34.7951C32.1939 34.6885 32.0285 34.5348 31.9079 34.348C31.7873 34.1611 31.7153 33.947 31.6986 33.7253C31.6819 33.5035 31.7209 33.2811 31.812 33.0783L33.332 29.6249H37.0254C37.2022 29.6249 37.3718 29.5547 37.4968 29.4297C37.6218 29.3046 37.692 29.1351 37.692 28.9583C37.692 28.7815 37.6218 28.6119 37.4968 28.4869C37.3718 28.3618 37.2022 28.2916 37.0254 28.2916H33.332L31.812 24.8716C31.7019 24.6231 31.6704 24.3468 31.7216 24.0799C31.7729 23.8129 31.9046 23.568 32.099 23.378C32.2933 23.1879 32.5412 23.0619 32.8092 23.0166C33.0773 22.9714 33.3527 23.0092 33.5987 23.1249V23.1249L43.3654 27.7516C43.5945 27.8592 43.7883 28.0298 43.9241 28.2435C44.0599 28.4572 44.132 28.7051 44.132 28.9583Z" fill="white"/>
<defs>
<filter id="filter0_d_36_687" x="0.373047" y="0.958496" width="72" height="72" filterUnits="userSpaceOnUse" color-interpolation-filters="sRGB">
<feFlood flood-opacity="0" result="BackgroundImageFix"/>
<feColorMatrix in="SourceAlpha" type="matrix" values="0 0 0 0 0 0 0 0 0 0 0 0 0 0 0 0 0 0 127 0" result="hardAlpha"/>
<feOffset dy="8"/>
<feGaussianBlur stdDeviation="11"/>
<feComposite in2="hardAlpha" operator="out"/>
<feColorMatrix type="matrix" values="0 0 0 0 0.161973 0 0 0 0 0.152778 0 0 0 0 0.229167 0 0 0 0.21 0"/>
<feBlend mode="normal" in2="BackgroundImageFix" result="effect1_dropShadow_36_687"/>
<feBlend mode="normal" in="SourceGraphic" in2="effect1_dropShadow_36_687" result="shape"/>
</filter>
</defs>
</svg>
