<svg width="21" height="21" viewBox="0 0 21 21" fill="none" xmlns="http://www.w3.org/2000/svg">
<path d="M16.8318 6.3L15.6568 5.125L10.9985 9.78333L6.34016 5.125L5.16516 6.3L9.82349 10.9583L5.16516 15.6167L6.34016 16.7917L10.9985 12.1333L15.6568 16.7917L16.8318 15.6167L12.1735 10.9583L16.8318 6.3Z" fill="#343434"/>
</svg>
