<svg width="23" height="25" viewBox="0 0 23 25" fill="none" xmlns="http://www.w3.org/2000/svg">
<path fill-rule="evenodd" clip-rule="evenodd" d="M12.3117 0.333984C13.147 0.333984 13.959 0.676984 14.5412 1.27315C15.1222 1.87282 15.443 2.69532 15.4185 3.52948C15.4208 3.71732 15.4827 3.93432 15.5947 4.12448C15.7802 4.43948 16.073 4.66115 16.4207 4.75215C16.7683 4.83848 17.1323 4.79182 17.4415 4.60865C18.9348 3.75582 20.8353 4.26682 21.6882 5.74848L22.415 7.00732C22.4337 7.04115 22.45 7.07382 22.464 7.10765C23.2363 8.56715 22.7207 10.4047 21.2857 11.2435C21.0768 11.3637 20.9077 11.5317 20.791 11.7347C20.6102 12.0485 20.56 12.4218 20.651 12.7648C20.7443 13.1148 20.9672 13.4053 21.281 13.585C21.9892 13.9922 22.5177 14.6782 22.7288 15.4703C22.94 16.2613 22.8245 17.12 22.4127 17.8281L21.638 19.1185C20.7852 20.5838 18.8847 21.0913 17.4065 20.2373C17.2093 20.1241 16.9818 20.0623 16.7555 20.0565H16.7485C16.4113 20.0565 16.0648 20.2 15.8128 20.4508C15.5573 20.7063 15.4173 21.047 15.4197 21.4087C15.4115 23.1225 14.0173 24.5085 12.3117 24.5085H10.8498C9.136 24.5085 7.74184 23.1155 7.74184 21.4017C7.7395 21.1905 7.67884 20.9712 7.56567 20.781C7.3825 20.4613 7.08617 20.2327 6.74434 20.1417C6.40484 20.0507 6.03267 20.1008 5.727 20.2782C4.99434 20.6865 4.13217 20.7857 3.3435 20.564C2.556 20.3412 1.87584 19.7998 1.47684 19.0823L0.74767 17.8258C-0.105164 16.3465 0.402336 14.4507 1.87934 13.5967C2.29817 13.3552 2.55834 12.9048 2.55834 12.4218C2.55834 11.9388 2.29817 11.4873 1.87934 11.2458C0.40117 10.3872 -0.105164 8.48665 0.746503 7.00732L1.5375 5.70882C2.37867 4.24582 4.28034 3.73015 5.76317 4.58182C5.965 4.70198 6.18434 4.76265 6.40717 4.76498C7.134 4.76498 7.74184 4.16532 7.7535 3.42798C7.74884 2.61482 8.06967 1.83432 8.65417 1.24515C9.241 0.657151 10.0203 0.333984 10.8498 0.333984H12.3117ZM12.3117 2.08398H10.8498C10.4882 2.08398 10.1498 2.22515 9.89434 2.47948C9.64 2.73498 9.50117 3.07448 9.5035 3.43615C9.479 5.14182 8.08484 6.51498 6.39667 6.51498C5.85534 6.50915 5.33384 6.36332 4.88117 6.09265C4.24534 5.73098 3.41467 5.95382 3.0425 6.60132L2.25267 7.89982C1.891 8.52748 2.11267 9.35698 2.75667 9.73148C3.71217 10.2845 4.30834 11.3158 4.30834 12.4218C4.30834 13.5278 3.71217 14.558 2.75434 15.1122C2.11384 15.4832 1.89217 16.308 2.26317 16.9497L2.99934 18.219C3.18134 18.5468 3.47884 18.7836 3.823 18.8805C4.166 18.9762 4.544 18.9353 4.859 18.7603C5.32217 18.4885 5.86117 18.3473 6.4025 18.3473C6.66967 18.3473 6.93684 18.3811 7.19817 18.4511C7.98684 18.6635 8.67167 19.1908 9.07767 19.899C9.34134 20.3435 9.48717 20.8627 9.49184 21.3923C9.49184 22.1507 10.1008 22.7585 10.8498 22.7585H12.3117C13.0572 22.7585 13.6662 22.1542 13.6697 21.4087C13.665 20.585 13.987 19.8022 14.5762 19.213C15.1572 18.632 15.9692 18.2832 16.7812 18.3065C17.3132 18.3193 17.8253 18.4628 18.2768 18.7195C18.9267 19.0917 19.7562 18.87 20.1318 18.2283L20.9065 16.9368C21.0792 16.6393 21.1293 16.266 21.0372 15.9218C20.9462 15.5777 20.7175 15.279 20.4095 15.1028C19.6885 14.6875 19.174 14.0178 18.9605 13.2152C18.7493 12.4277 18.8648 11.5678 19.2767 10.8597C19.545 10.393 19.9382 9.99982 20.4095 9.72915C21.0418 9.35932 21.2635 8.53215 20.896 7.88815C20.8808 7.86248 20.8668 7.83565 20.8552 7.80765L20.1715 6.62232C19.7993 5.97482 18.971 5.75198 18.3212 6.12182C17.6188 6.53715 16.7835 6.65615 15.9808 6.44498C15.1793 6.23732 14.5073 5.72982 14.0885 5.01348C13.8202 4.56548 13.6743 4.04398 13.6697 3.51315C13.6802 3.11415 13.5402 2.75598 13.2858 2.49348C13.0327 2.23215 12.6768 2.08398 12.3117 2.08398ZM11.5859 8.47043C13.7641 8.47043 15.5362 10.2438 15.5362 12.4219C15.5362 14.6001 13.7641 16.3711 11.5859 16.3711C9.40772 16.3711 7.63555 14.6001 7.63555 12.4219C7.63555 10.2438 9.40772 8.47043 11.5859 8.47043ZM11.5859 10.2204C10.3726 10.2204 9.38555 11.2086 9.38555 12.4219C9.38555 13.6353 10.3726 14.6211 11.5859 14.6211C12.7992 14.6211 13.7862 13.6353 13.7862 12.4219C13.7862 11.2086 12.7992 10.2204 11.5859 10.2204Z" fill="#BDBDBD"/>
</svg>
