<svg width="318" height="318" viewBox="0 0 318 318" fill="none" xmlns="http://www.w3.org/2000/svg">
<circle cx="159" cy="159" r="158.5" stroke="#D1D1D1" stroke-opacity="0.2"/>
<circle cx="159" cy="159" r="124.5" stroke="#D1D1D1" stroke-opacity="0.4"/>
<circle cx="159" cy="159" r="89.5" stroke="#D1D1D1" stroke-opacity="0.6"/>
<path d="M176.594 145.648C195.501 145.359 210.932 160.24 211.298 179.145C211.352 181.921 211.074 184.622 210.503 187.214C209.535 191.601 208.96 196.067 208.96 200.56V209.246C208.96 210.576 207.881 211.655 206.55 211.655H197.865C193.371 211.655 188.906 212.23 184.518 213.198C181.927 213.77 179.226 214.047 176.45 213.993C157.545 213.628 142.665 198.197 142.953 179.291C143.234 160.837 158.141 145.93 176.594 145.648Z" fill="#E0E0E0"/>
<g filter="url(#filter0_d_36_178)">
<path d="M154.287 105.006C127.986 104.604 106.519 125.305 106.009 151.605C105.934 155.466 106.32 159.225 107.116 162.829C108.462 168.933 109.262 175.145 109.262 181.396V193.479C109.262 195.33 110.763 196.831 112.614 196.831H124.697C130.948 196.831 137.16 197.632 143.264 198.978C146.869 199.773 150.628 200.159 154.489 200.084C180.788 199.575 201.489 178.109 201.088 151.807C200.696 126.135 179.959 105.398 154.287 105.006Z" fill="#6053BF"/>
</g>
<path fill-rule="evenodd" clip-rule="evenodd" d="M133.687 160.373C137.754 160.373 141.051 157.076 141.051 153.009C141.051 148.941 137.754 145.644 133.687 145.644C129.619 145.644 126.322 148.941 126.322 153.009C126.322 157.076 129.619 160.373 133.687 160.373ZM154.515 160.373C158.582 160.373 161.88 157.076 161.88 153.009C161.88 148.941 158.582 145.644 154.515 145.644C150.447 145.644 147.15 148.941 147.15 153.009C147.15 157.076 150.447 160.373 154.515 160.373ZM182.709 153.009C182.709 157.076 179.411 160.373 175.344 160.373C171.276 160.373 167.979 157.076 167.979 153.009C167.979 148.941 171.276 145.644 175.344 145.644C179.411 145.644 182.709 148.941 182.709 153.009Z" fill="white"/>
<defs>
<filter id="filter0_d_36_178" x="84" y="91" width="139.094" height="139.093" filterUnits="userSpaceOnUse" color-interpolation-filters="sRGB">
<feFlood flood-opacity="0" result="BackgroundImageFix"/>
<feColorMatrix in="SourceAlpha" type="matrix" values="0 0 0 0 0 0 0 0 0 0 0 0 0 0 0 0 0 0 127 0" result="hardAlpha"/>
<feOffset dy="8"/>
<feGaussianBlur stdDeviation="11"/>
<feComposite in2="hardAlpha" operator="out"/>
<feColorMatrix type="matrix" values="0 0 0 0 0.161973 0 0 0 0 0.152778 0 0 0 0 0.229167 0 0 0 0.21 0"/>
<feBlend mode="normal" in2="BackgroundImageFix" result="effect1_dropShadow_36_178"/>
<feBlend mode="normal" in="SourceGraphic" in2="effect1_dropShadow_36_178" result="shape"/>
</filter>
</defs>
</svg>
