<svg width="25" height="24" viewBox="0 0 25 24" fill="none" xmlns="http://www.w3.org/2000/svg">
<path d="M15.3544 7.45787L4.05222 18.7649C3.72413 19.093 3.72413 19.6268 4.05222 19.9549C4.21382 20.1165 4.42929 20.1998 4.64476 20.1998C4.86022 20.1998 5.07569 20.1165 5.23729 19.9549L16.5395 8.65272C16.8676 8.32463 16.8676 7.79086 16.5395 7.46276C16.2163 7.12977 15.6825 7.12977 15.3544 7.45787Z" fill="#BDBDBD"/>
<path d="M21.1131 9.39237C21.3286 9.39237 21.5441 9.30912 21.7057 9.14752L22.9397 7.91349C24.3647 6.48847 24.3647 4.17221 22.9397 2.75209L21.2551 1.06754C20.5647 0.377066 19.6489 0 18.6745 0C17.7 0 16.7842 0.381963 16.0938 1.06754L14.8597 2.30157C14.5316 2.62967 14.5316 3.16344 14.8597 3.49153L20.5206 9.15242C20.6822 9.30912 20.8977 9.39237 21.1131 9.39237ZM17.2837 2.2477C17.6559 1.87554 18.1505 1.66986 18.6793 1.66986C19.2033 1.66986 19.7028 1.87554 20.075 2.2477L21.7595 3.93226C22.5284 4.70108 22.5284 5.94981 21.7595 6.71863L21.1131 7.36503L16.6373 2.88921L17.2837 2.2477Z" fill="#BDBDBD"/>
<path d="M7.97462 22.8735L19.8987 10.9494C20.2268 10.6213 20.2268 10.0875 19.8987 9.75943C19.5706 9.43134 19.0369 9.43134 18.7088 9.75943L6.99033 21.4877L1.81914 22.183L2.51451 17.0118L13.709 5.81738C14.0371 5.48928 14.0371 4.95552 13.709 4.62742C13.3809 4.29932 12.8471 4.29932 12.519 4.62742L1.12867 16.0275C0.996453 16.1598 0.913205 16.3263 0.88872 16.5074L0.00726717 23.0498C-0.0270115 23.3093 0.0611337 23.5689 0.247218 23.7549C0.403921 23.9116 0.619387 23.9998 0.83975 23.9998C0.878926 23.9998 0.913205 23.9949 0.95238 23.99L7.49472 23.1085C7.67591 23.089 7.8473 23.0057 7.97462 22.8735Z" fill="#BDBDBD"/>
</svg>
