<svg width="33" height="32" viewBox="0 0 33 32" fill="none" xmlns="http://www.w3.org/2000/svg">
<g clip-path="url(#clip0_36_112)">
<path d="M7.59383 19.3379L6.47995 23.4962L2.40877 23.5823C1.19208 21.3256 0.501953 18.7437 0.501953 15.9999C0.501953 13.3468 1.1472 10.8448 2.29095 8.64169L5.91633 9.30619L7.50408 12.9089C7.17177 13.8778 6.99064 14.9178 6.99064 15.9999C6.99077 17.1744 7.20352 18.2998 7.59383 19.3379Z" fill="#4CD964"/>
<path d="M32.2224 13.011C32.4061 13.9788 32.502 14.9784 32.502 16C32.502 17.1455 32.3815 18.2628 32.1521 19.3407C31.3732 23.0083 29.338 26.211 26.5187 28.4773L26.5178 28.4765L21.9526 28.2435L21.3065 24.2101C23.1772 23.113 24.6392 21.396 25.4093 19.3407H16.8537V13.011H32.2224Z" fill="#4CD964"/>
<path d="M26.5178 28.4765L26.5187 28.4773C23.7768 30.6813 20.2936 32.0001 16.502 32.0001C10.4088 32.0001 5.1112 28.5942 2.40877 23.5823L7.59383 19.3379C8.94502 22.9441 12.4237 25.5113 16.502 25.5113C18.2549 25.5113 19.8973 25.0373 21.3065 24.2101L26.5178 28.4765Z" fill="#4CD964"/>
<path d="M26.7147 3.6835L21.5314 7.927C20.073 7.01538 18.349 6.48875 16.502 6.48875C12.3314 6.48875 8.78758 9.17351 7.50408 12.9089L2.29095 8.64169C4.95383 3.50763 10.3182 0 16.502 0C20.3841 0 23.9437 1.38287 26.7147 3.6835Z" fill="#4CD964"/>
</g>
<defs>
<clipPath id="clip0_36_112">
<rect width="32" height="32" fill="white" transform="translate(0.501953)"/>
</clipPath>
</defs>
</svg>
