<svg width="50" height="50" viewBox="0 0 50 50" fill="none" xmlns="http://www.w3.org/2000/svg">
<mask id="mask0_48_47" style="mask-type:alpha" maskUnits="userSpaceOnUse" x="0" y="0" width="50" height="50">
<circle cx="25" cy="25" r="25" fill="#C4C4C4"/>
</mask>
<g mask="url(#mask0_48_47)">
<rect width="50" height="50" fill="black"/>
</g>
<path d="M32.9375 24.4509C31.9841 27.1685 29.362 29.1228 26.3109 29.1228C23.2598 29.1228 20.6857 27.1681 19.6843 24.4509C14.4881 25.2138 9.33928 26.8346 4.42896 29.4088C6.47873 38.8957 14.917 46.0467 25.0237 46.0467C35.5595 46.0467 44.236 38.3237 45.8092 28.2646C41.6139 26.3579 37.3234 25.1181 32.9375 24.4507V24.4509Z" fill="white"/>
<path d="M26.3586 15.0602C29.5051 15.0602 32.1747 17.11 33.0806 19.9706C37.4665 20.5425 41.8048 21.7344 46 23.4506C45.1893 12.5812 36.1317 4 25.0238 4C13.5346 4 4.19069 13.2486 4 24.6901C9.05326 22.3065 14.2974 20.7333 19.6368 20.0182C20.5427 17.1577 23.2123 15.0601 26.3588 15.0601L26.3586 15.0602Z" fill="#FF1C1C"/>
<path d="M30.4109 22.1168C30.4109 24.3545 28.5966 26.1689 26.3585 26.1689C24.1205 26.1689 22.3062 24.3546 22.3062 22.1168C22.3062 19.8788 24.1205 18.0645 26.3585 18.0645C28.5965 18.0645 30.4109 19.8788 30.4109 22.1168Z" fill="white"/>
</svg>
